# Blender v2.72 (sub 0) OBJ File: ''
# www.blender.org
mtllib GM_002.mtl
o Sphere
v -4.130553 -6.734788 -3.681447
v -4.158275 -7.016252 -3.681447
v -4.130553 -7.297716 -3.681447
v -4.048453 -7.568363 -3.681447
v -3.915130 -7.817794 -3.681447
v -3.735707 -8.036421 -3.681447
v -3.517080 -8.215844 -3.681447
v -3.267649 -8.349167 -3.681447
v -2.997002 -8.431267 -3.681447
v -4.103364 -6.734788 -3.957503
v -4.130553 -7.016252 -3.962911
v -4.103364 -7.297716 -3.957503
v -4.022841 -7.568363 -3.941486
v -3.892080 -7.817794 -3.915476
v -3.716105 -8.036421 -3.880472
v -3.501678 -8.215844 -3.837820
v -3.257041 -8.349167 -3.789159
v -2.991593 -8.431267 -3.736358
v -4.022841 -6.734788 -4.222950
v -4.048453 -7.016252 -4.233559
v -4.022841 -7.297716 -4.222950
v -3.946991 -7.568363 -4.191532
v -3.823816 -7.817794 -4.140511
v -3.658051 -8.036421 -4.071849
v -3.456066 -8.215844 -3.988184
v -3.225622 -8.349167 -3.892731
v -2.975576 -8.431267 -3.789159
v -3.892080 -6.734788 -4.467587
v -3.915130 -7.016252 -4.482989
v -3.892080 -7.297716 -4.467587
v -3.823816 -7.568363 -4.421975
v -3.712962 -7.817794 -4.347905
v -3.563777 -8.036421 -4.248223
v -3.381995 -8.215844 -4.126760
v -3.174602 -8.349167 -3.988184
v -2.949566 -8.431267 -3.837820
v -3.716105 -6.734788 -4.682014
v -3.735707 -7.016252 -4.701616
v -3.716105 -7.297716 -4.682014
v -3.658051 -7.568363 -4.623960
v -3.563777 -7.817794 -4.529687
v -3.436906 -8.036421 -4.402816
v -3.282313 -8.215844 -4.248223
v -3.105940 -8.349167 -4.071849
v -2.914563 -8.431267 -3.880472
v -3.501678 -6.734788 -4.857989
v -3.517079 -7.016252 -4.881039
v -3.501678 -7.297716 -4.857989
v -3.456066 -7.568363 -4.789726
v -3.381995 -7.817794 -4.678872
v -3.282313 -8.036421 -4.529687
v -3.160851 -8.215844 -4.347905
v -3.022274 -8.349167 -4.140511
v -2.871911 -8.431267 -3.915476
v -3.257041 -6.734788 -4.988750
v -3.267649 -7.016252 -5.014362
v -3.257041 -7.297716 -4.988750
v -3.225622 -7.568363 -4.912900
v -3.174602 -7.817794 -4.789726
v -3.105939 -8.036421 -4.623960
v -3.022274 -8.215844 -4.421975
v -2.926822 -8.349167 -4.191532
v -2.823249 -8.431267 -3.941486
v -2.991593 -6.734788 -5.069273
v -2.997002 -7.016252 -5.096462
v -2.991593 -7.297716 -5.069273
v -2.975577 -7.568363 -4.988751
v -2.949566 -7.817794 -4.857989
v -2.914563 -8.036421 -4.682014
v -2.871911 -8.215844 -4.467587
v -2.823249 -8.349167 -4.222950
v -2.770448 -8.431267 -3.957503
v -2.715538 -6.734788 -5.096462
v -2.715538 -7.016252 -5.124185
v -2.715538 -7.297716 -5.096462
v -2.715538 -7.568363 -5.014362
v -2.715538 -7.817794 -4.881039
v -2.715538 -8.036421 -4.701616
v -2.715538 -8.215844 -4.482989
v -2.715538 -8.349167 -4.233559
v -2.715538 -8.431267 -3.962911
v -2.439482 -6.734788 -5.069273
v -2.434073 -7.016252 -5.096462
v -2.439482 -7.297716 -5.069273
v -2.455499 -7.568363 -4.988751
v -2.481509 -7.817794 -4.857989
v -2.516512 -8.036421 -4.682014
v -2.559165 -8.215844 -4.467587
v -2.607826 -8.349167 -4.222950
v -2.660627 -8.431267 -3.957503
v -2.174035 -6.734788 -4.988750
v -2.163426 -7.016252 -5.014362
v -2.174035 -7.297716 -4.988750
v -2.205453 -7.568363 -4.912900
v -2.256474 -7.817794 -4.789725
v -2.325136 -8.036421 -4.623960
v -2.408801 -8.215844 -4.421975
v -2.504254 -8.349167 -4.191532
v -2.607826 -8.431267 -3.941486
v -1.929397 -6.734788 -4.857989
v -1.913996 -7.016252 -4.881039
v -1.929397 -7.297716 -4.857989
v -1.975010 -7.568363 -4.789726
v -2.049080 -7.817794 -4.678871
v -2.148762 -8.036421 -4.529687
v -2.270225 -8.215844 -4.347905
v -2.408801 -8.349167 -4.140511
v -2.559165 -8.431267 -3.915476
v -1.714971 -6.734788 -4.682014
v -1.695368 -7.016252 -4.701616
v -1.714971 -7.297716 -4.682014
v -1.773024 -7.568363 -4.623960
v -1.867298 -7.817794 -4.529686
v -1.994169 -8.036421 -4.402816
v -2.148762 -8.215844 -4.248223
v -2.325136 -8.349167 -4.071849
v -2.516512 -8.431267 -3.880472
v -1.538996 -6.734788 -4.467587
v -1.515945 -7.016252 -4.482989
v -1.538996 -7.297716 -4.467587
v -1.607259 -7.568363 -4.421975
v -1.718113 -7.817794 -4.347905
v -1.867298 -8.036421 -4.248223
v -2.049080 -8.215844 -4.126760
v -2.256474 -8.349167 -3.988184
v -2.481509 -8.431267 -3.837820
v -1.408234 -6.734788 -4.222950
v -1.382622 -7.016252 -4.233559
v -1.408234 -7.297716 -4.222950
v -1.484084 -7.568363 -4.191532
v -1.607259 -7.817794 -4.140511
v -1.773024 -8.036421 -4.071849
v -1.975010 -8.215844 -3.988184
v -2.205453 -8.349167 -3.892731
v -2.455499 -8.431267 -3.789159
v -1.327712 -6.734788 -3.957503
v -1.300522 -7.016252 -3.962911
v -1.327712 -7.297716 -3.957503
v -1.408234 -7.568363 -3.941486
v -1.538996 -7.817794 -3.915476
v -1.714971 -8.036421 -3.880472
v -1.929397 -8.215844 -3.837820
v -2.174035 -8.349167 -3.789159
v -2.439482 -8.431267 -3.736358
v -1.300523 -6.734788 -3.681447
v -1.272801 -7.016252 -3.681447
v -1.300523 -7.297716 -3.681447
v -1.382622 -7.568363 -3.681447
v -1.515946 -7.817794 -3.681447
v -1.695369 -8.036421 -3.681447
v -1.913996 -8.215844 -3.681447
v -2.163426 -8.349167 -3.681447
v -2.434073 -8.431267 -3.681447
v -1.327712 -6.734788 -3.405391
v -1.300522 -7.016252 -3.399983
v -1.327712 -7.297716 -3.405391
v -1.408234 -7.568363 -3.421408
v -1.538996 -7.817794 -3.447418
v -1.714971 -8.036421 -3.482422
v -1.929397 -8.215844 -3.525074
v -2.174035 -8.349167 -3.573735
v -2.439482 -8.431267 -3.626536
v -1.408234 -6.734788 -3.139944
v -1.382622 -7.016252 -3.129335
v -1.408234 -7.297716 -3.139944
v -1.484084 -7.568363 -3.171363
v -1.607260 -7.817794 -3.222383
v -1.773024 -8.036421 -3.291045
v -1.975010 -8.215844 -3.374710
v -2.205453 -8.349167 -3.470163
v -2.455499 -8.431267 -3.573735
v -1.538996 -6.734788 -2.895307
v -1.515946 -7.016252 -2.879905
v -1.538996 -7.297716 -2.895307
v -1.607259 -7.568363 -2.940919
v -1.718114 -7.817794 -3.014990
v -1.867298 -8.036421 -3.114671
v -2.049080 -8.215844 -3.236134
v -2.256474 -8.349167 -3.374710
v -2.481509 -8.431267 -3.525074
v -1.714971 -6.734788 -2.680881
v -1.695369 -7.016252 -2.661278
v -1.714971 -7.297716 -2.680881
v -1.773024 -7.568363 -2.738934
v -1.867298 -7.817794 -2.833208
v -1.994169 -8.036421 -2.960078
v -2.148762 -8.215844 -3.114671
v -2.325136 -8.349167 -3.291045
v -2.516512 -8.431267 -3.482422
v -1.929398 -6.734788 -2.504905
v -1.913996 -7.016252 -2.481855
v -1.929398 -7.297716 -2.504905
v -1.975010 -7.568363 -2.573169
v -2.049080 -7.817794 -2.684023
v -2.148762 -8.036421 -2.833208
v -2.270225 -8.215844 -3.014990
v -2.408801 -8.349167 -3.222383
v -2.559165 -8.431267 -3.447418
v -2.715538 -8.458989 -3.681447
v -2.174035 -6.734788 -2.374144
v -2.163426 -7.016252 -2.348532
v -2.174035 -7.297716 -2.374144
v -2.205453 -7.568363 -2.449994
v -2.256474 -7.817794 -2.573169
v -2.325136 -8.036421 -2.738934
v -2.408801 -8.215844 -2.940919
v -2.504254 -8.349167 -3.171363
v -2.607826 -8.431267 -3.421408
v -2.439482 -6.734788 -2.293622
v -2.434074 -7.016252 -2.266432
v -2.439482 -7.297716 -2.293622
v -2.455499 -7.568363 -2.374144
v -2.481509 -7.817794 -2.504905
v -2.516513 -8.036421 -2.680880
v -2.559165 -8.215844 -2.895307
v -2.607826 -8.349167 -3.139944
v -2.660627 -8.431267 -3.405391
v -2.715538 -6.734788 -2.266433
v -2.715538 -7.016252 -2.238710
v -2.715538 -7.297716 -2.266433
v -2.715538 -7.568363 -2.348532
v -2.715538 -7.817794 -2.481856
v -2.715538 -8.036421 -2.661278
v -2.715538 -8.215844 -2.879905
v -2.715538 -8.349167 -3.129336
v -2.715538 -8.431267 -3.399983
v -2.991594 -6.734788 -2.293622
v -2.997002 -7.016252 -2.266432
v -2.991594 -7.297716 -2.293622
v -2.975576 -7.568363 -2.374144
v -2.949567 -7.817794 -2.504906
v -2.914563 -8.036421 -2.680880
v -2.871911 -8.215844 -2.895307
v -2.823249 -8.349167 -3.139945
v -2.770448 -8.431267 -3.405391
v -3.257041 -6.734788 -2.374144
v -3.267649 -7.016252 -2.348532
v -3.257041 -7.297716 -2.374144
v -3.225622 -7.568363 -2.449994
v -3.174602 -7.817794 -2.573169
v -3.105940 -8.036421 -2.738934
v -3.022274 -8.215844 -2.940919
v -2.926821 -8.349167 -3.171363
v -2.823249 -8.431267 -3.421408
v -3.501678 -6.734788 -2.504906
v -3.517079 -7.016252 -2.481856
v -3.501678 -7.297716 -2.504906
v -3.456066 -7.568363 -2.573169
v -3.381995 -7.817794 -2.684023
v -3.282313 -8.036421 -2.833208
v -3.160850 -8.215844 -3.014990
v -3.022274 -8.349167 -3.222383
v -2.871911 -8.431267 -3.447418
v -3.716104 -6.734788 -2.680881
v -3.735707 -7.016252 -2.661278
v -3.716104 -7.297716 -2.680881
v -3.658051 -7.568363 -2.738934
v -3.563777 -7.817794 -2.833208
v -3.436906 -8.036421 -2.960079
v -3.282313 -8.215844 -3.114672
v -3.105939 -8.349167 -3.291045
v -2.914563 -8.431267 -3.482422
v -3.892079 -6.734788 -2.895308
v -3.915129 -7.016252 -2.879906
v -3.892079 -7.297716 -2.895308
v -3.823816 -7.568363 -2.940919
v -3.712961 -7.817794 -3.014990
v -3.563777 -8.036421 -3.114672
v -3.381995 -8.215844 -3.236135
v -3.174601 -8.349167 -3.374711
v -2.949566 -8.431267 -3.525074
v -4.022840 -6.734788 -3.139945
v -4.048452 -7.016252 -3.129336
v -4.022840 -7.297716 -3.139945
v -3.946990 -7.568363 -3.171363
v -3.823816 -7.817794 -3.222384
v -3.658051 -8.036421 -3.291045
v -3.456065 -8.215844 -3.374711
v -3.225622 -8.349167 -3.470163
v -2.975576 -8.431267 -3.573735
v -4.103363 -6.734788 -3.405392
v -4.130552 -7.016252 -3.399983
v -4.103363 -7.297716 -3.405392
v -4.022841 -7.568363 -3.421408
v -3.892079 -7.817794 -3.447419
v -3.716104 -8.036421 -3.482422
v -3.501678 -8.215844 -3.525074
v -3.257040 -8.349167 -3.573735
v -2.991593 -8.431267 -3.626536
v -4.130553 -5.750692 -3.681447
v -4.103364 -5.750692 -3.957503
v -4.022841 -5.750692 -4.222950
v -3.892080 -5.750692 -4.467587
v -3.716105 -5.750692 -4.682014
v -3.501678 -5.750692 -4.857989
v -3.257041 -5.750692 -4.988750
v -2.991593 -5.750692 -5.069273
v -2.715538 -5.750692 -5.096462
v -2.439482 -5.750692 -5.069273
v -2.174035 -5.750692 -4.988750
v -1.929397 -5.750692 -4.857989
v -1.714971 -5.750692 -4.682014
v -1.538996 -5.750692 -4.467587
v -1.408234 -5.750692 -4.222950
v -1.327712 -5.750692 -3.957502
v -1.300523 -5.750692 -3.681447
v -1.327712 -5.750692 -3.405391
v -1.408234 -5.750692 -3.139944
v -1.538996 -5.750692 -2.895307
v -1.714971 -5.750692 -2.680880
v -1.929398 -5.750692 -2.504905
v -2.174035 -5.750692 -2.374144
v -2.439482 -5.750692 -2.293621
v -2.715538 -5.750692 -2.266432
v -2.991594 -5.750692 -2.293622
v -3.257041 -5.750692 -2.374144
v -3.501678 -5.750692 -2.504905
v -3.716104 -5.750692 -2.680881
v -3.892079 -5.750692 -2.895307
v -4.022840 -5.750692 -3.139945
v -4.103363 -5.750692 -3.405392
v -2.997002 -2.418085 -3.681447
v -3.267650 -2.500185 -3.681447
v -3.517080 -2.633508 -3.681447
v -3.735707 -2.812931 -3.681447
v -3.915130 -3.031558 -3.681447
v -4.048453 -3.280988 -3.681447
v -4.130553 -3.551636 -3.681447
v -2.991594 -2.418085 -3.736358
v -3.257041 -2.500185 -3.789159
v -3.501678 -2.633508 -3.837820
v -3.716105 -2.812931 -3.880472
v -3.892080 -3.031558 -3.915476
v -4.022841 -3.280988 -3.941486
v -4.103364 -3.551636 -3.957503
v -2.975577 -2.418085 -3.789159
v -3.225623 -2.500185 -3.892731
v -3.456066 -2.633508 -3.988184
v -3.658051 -2.812931 -4.071849
v -3.823816 -3.031558 -4.140511
v -3.946991 -3.280988 -4.191532
v -4.022841 -3.551636 -4.222950
v -2.949567 -2.418085 -3.837820
v -3.174602 -2.500185 -3.988184
v -3.381995 -2.633508 -4.126760
v -3.563777 -2.812931 -4.248223
v -3.712962 -3.031558 -4.347905
v -3.823816 -3.280988 -4.421975
v -3.892080 -3.551636 -4.467587
v -2.914563 -2.418085 -3.880472
v -3.105940 -2.500185 -4.071849
v -3.282313 -2.633508 -4.248223
v -3.436906 -2.812931 -4.402815
v -3.563777 -3.031558 -4.529687
v -3.658051 -3.280988 -4.623960
v -3.716105 -3.551636 -4.682014
v -2.871911 -2.418085 -3.915476
v -3.022274 -2.500185 -4.140511
v -3.160851 -2.633508 -4.347905
v -3.282313 -2.812931 -4.529687
v -3.381995 -3.031558 -4.678871
v -3.456066 -3.280988 -4.789725
v -3.501678 -3.551636 -4.857989
v -2.823249 -2.418085 -3.941486
v -2.926822 -2.500185 -4.191532
v -3.022274 -2.633508 -4.421975
v -3.105939 -2.812931 -4.623960
v -3.174602 -3.031558 -4.789725
v -3.225622 -3.280988 -4.912900
v -3.257041 -3.551636 -4.988750
v -2.770448 -2.418085 -3.957503
v -2.823249 -2.500185 -4.222950
v -2.871911 -2.633508 -4.467587
v -2.914563 -2.812931 -4.682014
v -2.949566 -3.031558 -4.857989
v -2.975576 -3.280988 -4.988750
v -2.991593 -3.551636 -5.069273
v -2.715538 -2.418085 -3.962911
v -2.715538 -2.500185 -4.233559
v -2.715538 -2.633508 -4.482989
v -2.715538 -2.812931 -4.701616
v -2.715538 -3.031558 -4.881039
v -2.715538 -3.280988 -5.014362
v -2.715538 -3.551636 -5.096462
v -2.660627 -2.418085 -3.957503
v -2.607826 -2.500185 -4.222950
v -2.559165 -2.633508 -4.467587
v -2.516512 -2.812931 -4.682014
v -2.481509 -3.031558 -4.857989
v -2.455499 -3.280988 -4.988750
v -2.439482 -3.551636 -5.069273
v -2.607826 -2.418085 -3.941486
v -2.504253 -2.500185 -4.191532
v -2.408801 -2.633508 -4.421975
v -2.325136 -2.812931 -4.623960
v -2.256474 -3.031558 -4.789725
v -2.205453 -3.280988 -4.912900
v -2.174035 -3.551636 -4.988750
v -2.559164 -2.418085 -3.915476
v -2.408801 -2.500185 -4.140511
v -2.270225 -2.633508 -4.347905
v -2.148762 -2.812931 -4.529686
v -2.049080 -3.031558 -4.678871
v -1.975010 -3.280988 -4.789725
v -1.929397 -3.551636 -4.857989
v -2.516512 -2.418085 -3.880472
v -2.325135 -2.500185 -4.071849
v -2.148762 -2.633508 -4.248222
v -1.994169 -2.812931 -4.402815
v -1.867298 -3.031558 -4.529686
v -1.773024 -3.280988 -4.623960
v -1.714971 -3.551636 -4.682014
v -2.481508 -2.418085 -3.837820
v -2.256473 -2.500185 -3.988184
v -2.049080 -2.633508 -4.126760
v -1.867298 -2.812931 -4.248222
v -1.718113 -3.031558 -4.347904
v -1.607259 -3.280988 -4.421975
v -1.538996 -3.551636 -4.467587
v -2.455498 -2.418085 -3.789159
v -2.205453 -2.500185 -3.892731
v -1.975009 -2.633508 -3.988183
v -1.773024 -2.812931 -4.071848
v -1.607259 -3.031558 -4.140511
v -1.484084 -3.280988 -4.191532
v -1.408234 -3.551636 -4.222950
v -2.439481 -2.418085 -3.736358
v -2.174035 -2.500185 -3.789159
v -1.929397 -2.633508 -3.837820
v -1.714971 -2.812931 -3.880472
v -1.538996 -3.031558 -3.915475
v -1.408234 -3.280988 -3.941486
v -1.327712 -3.551636 -3.957502
v -2.434073 -2.418085 -3.681447
v -2.163426 -2.500185 -3.681447
v -1.913996 -2.633508 -3.681447
v -1.695369 -2.812931 -3.681447
v -1.515946 -3.031558 -3.681447
v -1.382622 -3.280988 -3.681447
v -1.300523 -3.551636 -3.681447
v -2.439481 -2.418085 -3.626536
v -2.174035 -2.500185 -3.573735
v -1.929397 -2.633508 -3.525074
v -1.714971 -2.812931 -3.482422
v -1.538996 -3.031558 -3.447418
v -1.408234 -3.280988 -3.421408
v -1.327712 -3.551636 -3.405391
v -2.455498 -2.418085 -3.573735
v -2.205453 -2.500185 -3.470163
v -1.975009 -2.633508 -3.374710
v -1.773024 -2.812931 -3.291045
v -1.607260 -3.031558 -3.222383
v -1.484084 -3.280988 -3.171362
v -1.408234 -3.551636 -3.139944
v -2.481508 -2.418085 -3.525074
v -2.256474 -2.500185 -3.374710
v -2.049080 -2.633508 -3.236134
v -1.867298 -2.812931 -3.114671
v -1.718114 -3.031558 -3.014989
v -1.607259 -3.280988 -2.940919
v -1.538996 -3.551636 -2.895307
v -2.516512 -2.418085 -3.482421
v -2.325136 -2.500185 -3.291045
v -2.148762 -2.633508 -3.114671
v -1.994169 -2.812931 -2.960078
v -1.867298 -3.031558 -2.833207
v -1.773024 -3.280988 -2.738934
v -1.714971 -3.551636 -2.680880
v -2.559165 -2.418085 -3.447418
v -2.408801 -2.500185 -3.222383
v -2.270225 -2.633508 -3.014989
v -2.148762 -2.812931 -2.833207
v -2.049080 -3.031558 -2.684023
v -1.975010 -3.280988 -2.573168
v -1.929398 -3.551636 -2.504905
v -2.607826 -2.418085 -3.421408
v -2.504254 -2.500185 -3.171362
v -2.408801 -2.633508 -2.940919
v -2.325136 -2.812931 -2.738934
v -2.256474 -3.031558 -2.573169
v -2.205453 -3.280988 -2.449994
v -2.174035 -3.551636 -2.374144
v -2.660627 -2.418085 -3.405391
v -2.607826 -2.500185 -3.139944
v -2.559165 -2.633508 -2.895307
v -2.516513 -2.812931 -2.680880
v -2.481509 -3.031558 -2.504905
v -2.455499 -3.280988 -2.374143
v -2.439482 -3.551636 -2.293621
v -2.715538 -2.418085 -3.399982
v -2.715538 -2.500185 -3.129335
v -2.715538 -2.633508 -2.879905
v -2.715538 -2.812931 -2.661278
v -2.715538 -3.031558 -2.481855
v -2.715538 -3.280988 -2.348532
v -2.715538 -3.551636 -2.266432
v -2.770448 -2.418085 -3.405391
v -2.823249 -2.500185 -3.139944
v -2.871911 -2.633508 -2.895307
v -2.914563 -2.812931 -2.680880
v -2.949567 -3.031558 -2.504905
v -2.975576 -3.280988 -2.374143
v -2.991594 -3.551636 -2.293622
v -2.823249 -2.418085 -3.421408
v -2.926821 -2.500185 -3.171362
v -3.022274 -2.633508 -2.940919
v -3.105940 -2.812931 -2.738934
v -3.174602 -3.031558 -2.573169
v -3.225622 -3.280988 -2.449994
v -3.257041 -3.551636 -2.374144
v -2.871911 -2.418085 -3.447418
v -3.022274 -2.500185 -3.222383
v -3.160850 -2.633508 -3.014989
v -3.282313 -2.812931 -2.833207
v -3.381995 -3.031558 -2.684023
v -3.456066 -3.280988 -2.573169
v -3.501678 -3.551636 -2.504905
v -2.914563 -2.418085 -3.482422
v -3.105939 -2.500185 -3.291045
v -3.282313 -2.633508 -3.114671
v -3.436906 -2.812931 -2.960078
v -3.563777 -3.031558 -2.833208
v -3.658051 -3.280988 -2.738934
v -3.716104 -3.551636 -2.680881
v -2.949567 -2.418085 -3.525074
v -3.174602 -2.500185 -3.374710
v -3.381995 -2.633508 -3.236134
v -3.563777 -2.812931 -3.114671
v -3.712961 -3.031558 -3.014990
v -3.823816 -3.280988 -2.940919
v -3.892079 -3.551636 -2.895307
v -2.715538 -2.390363 -3.681447
v -2.975577 -2.418085 -3.573735
v -3.225622 -2.500185 -3.470163
v -3.456065 -2.633508 -3.374710
v -3.658051 -2.812931 -3.291045
v -3.823816 -3.031558 -3.222383
v -3.946990 -3.280988 -3.171362
v -4.022840 -3.551636 -3.139945
v -2.991594 -2.418085 -3.626536
v -3.257040 -2.500185 -3.573735
v -3.501678 -2.633508 -3.525074
v -3.716104 -2.812931 -3.482422
v -3.892079 -3.031558 -3.447418
v -4.022841 -3.280988 -3.421408
v -4.103363 -3.551636 -3.405392
g Sphere_Sphere_Material.001
usemtl Material.001
s off
f 5 4 13 14
f 3 2 11 12
f 8 7 16 17
f 6 5 14 15
f 4 3 12 13
f 2 1 10 11
f 9 8 17 18
f 7 6 15 16
f 18 17 26 27
f 16 15 24 25
f 14 13 22 23
f 12 11 20 21
f 17 16 25 26
f 15 14 23 24
f 13 12 21 22
f 11 10 19 20
f 27 26 35 36
f 25 24 33 34
f 23 22 31 32
f 21 20 29 30
f 26 25 34 35
f 24 23 32 33
f 22 21 30 31
f 20 19 28 29
f 36 35 44 45
f 34 33 42 43
f 32 31 40 41
f 30 29 38 39
f 35 34 43 44
f 33 32 41 42
f 31 30 39 40
f 29 28 37 38
f 45 44 53 54
f 43 42 51 52
f 41 40 49 50
f 39 38 47 48
f 44 43 52 53
f 42 41 50 51
f 40 39 48 49
f 38 37 46 47
f 54 53 62 63
f 52 51 60 61
f 50 49 58 59
f 48 47 56 57
f 53 52 61 62
f 51 50 59 60
f 49 48 57 58
f 47 46 55 56
f 63 62 71 72
f 61 60 69 70
f 59 58 67 68
f 57 56 65 66
f 62 61 70 71
f 60 59 68 69
f 58 57 66 67
f 56 55 64 65
f 72 71 80 81
f 70 69 78 79
f 68 67 76 77
f 66 65 74 75
f 71 70 79 80
f 69 68 77 78
f 67 66 75 76
f 65 64 73 74
f 81 80 89 90
f 79 78 87 88
f 77 76 85 86
f 75 74 83 84
f 80 79 88 89
f 78 77 86 87
f 76 75 84 85
f 74 73 82 83
f 90 89 98 99
f 88 87 96 97
f 86 85 94 95
f 84 83 92 93
f 89 88 97 98
f 87 86 95 96
f 85 84 93 94
f 83 82 91 92
f 99 98 107 108
f 97 96 105 106
f 95 94 103 104
f 93 92 101 102
f 98 97 106 107
f 96 95 104 105
f 94 93 102 103
f 92 91 100 101
f 108 107 116 117
f 106 105 114 115
f 104 103 112 113
f 102 101 110 111
f 107 106 115 116
f 105 104 113 114
f 103 102 111 112
f 101 100 109 110
f 117 116 125 126
f 115 114 123 124
f 113 112 121 122
f 111 110 119 120
f 116 115 124 125
f 114 113 122 123
f 112 111 120 121
f 110 109 118 119
f 126 125 134 135
f 124 123 132 133
f 122 121 130 131
f 120 119 128 129
f 125 124 133 134
f 123 122 131 132
f 121 120 129 130
f 119 118 127 128
f 135 134 143 144
f 133 132 141 142
f 131 130 139 140
f 129 128 137 138
f 134 133 142 143
f 132 131 140 141
f 130 129 138 139
f 128 127 136 137
f 144 143 152 153
f 142 141 150 151
f 140 139 148 149
f 138 137 146 147
f 143 142 151 152
f 141 140 149 150
f 139 138 147 148
f 137 136 145 146
f 153 152 161 162
f 151 150 159 160
f 149 148 157 158
f 147 146 155 156
f 152 151 160 161
f 150 149 158 159
f 148 147 156 157
f 146 145 154 155
f 162 161 170 171
f 160 159 168 169
f 158 157 166 167
f 156 155 164 165
f 161 160 169 170
f 159 158 167 168
f 157 156 165 166
f 155 154 163 164
f 171 170 179 180
f 169 168 177 178
f 167 166 175 176
f 165 164 173 174
f 170 169 178 179
f 168 167 176 177
f 166 165 174 175
f 164 163 172 173
f 180 179 188 189
f 178 177 186 187
f 176 175 184 185
f 174 173 182 183
f 179 178 187 188
f 177 176 185 186
f 175 174 183 184
f 173 172 181 182
f 189 188 197 198
f 187 186 195 196
f 185 184 193 194
f 183 182 191 192
f 188 187 196 197
f 186 185 194 195
f 184 183 192 193
f 182 181 190 191
f 198 197 207 208
f 196 195 205 206
f 194 193 203 204
f 192 191 201 202
f 197 196 206 207
f 195 194 204 205
f 193 192 202 203
f 191 190 200 201
f 208 207 216 217
f 206 205 214 215
f 204 203 212 213
f 202 201 210 211
f 207 206 215 216
f 205 204 213 214
f 203 202 211 212
f 201 200 209 210
f 217 216 225 226
f 215 214 223 224
f 213 212 221 222
f 211 210 219 220
f 216 215 224 225
f 214 213 222 223
f 212 211 220 221
f 210 209 218 219
f 226 225 234 235
f 224 223 232 233
f 222 221 230 231
f 220 219 228 229
f 225 224 233 234
f 223 222 231 232
f 221 220 229 230
f 219 218 227 228
f 235 234 243 244
f 233 232 241 242
f 231 230 239 240
f 229 228 237 238
f 234 233 242 243
f 232 231 240 241
f 230 229 238 239
f 228 227 236 237
f 244 243 252 253
f 242 241 250 251
f 240 239 248 249
f 238 237 246 247
f 243 242 251 252
f 241 240 249 250
f 239 238 247 248
f 237 236 245 246
f 253 252 261 262
f 251 250 259 260
f 249 248 257 258
f 247 246 255 256
f 252 251 260 261
f 250 249 258 259
f 248 247 256 257
f 246 245 254 255
f 262 261 270 271
f 260 259 268 269
f 258 257 266 267
f 256 255 264 265
f 261 260 269 270
f 259 258 267 268
f 257 256 265 266
f 255 254 263 264
f 271 270 279 280
f 269 268 277 278
f 267 266 275 276
f 265 264 273 274
f 270 269 278 279
f 268 267 276 277
f 266 265 274 275
f 264 263 272 273
f 280 279 288 289
f 278 277 286 287
f 276 275 284 285
f 274 273 282 283
f 279 278 287 288
f 277 276 285 286
f 275 274 283 284
f 273 272 281 282
f 199 9 18
f 199 18 27
f 199 27 36
f 199 36 45
f 199 45 54
f 199 54 63
f 199 63 72
f 109 100 301 302
f 199 72 81
f 236 227 315 316
f 199 81 90
f 55 46 295 296
f 199 90 99
f 154 145 306 307
f 199 99 108
f 100 91 300 301
f 199 108 117
f 227 218 314 315
f 199 117 126
f 145 136 305 306
f 199 126 135
f 46 37 294 295
f 199 135 144
f 91 82 299 300
f 199 144 153
f 218 209 313 314
f 199 153 162
f 136 127 304 305
f 199 162 171
f 37 28 293 294
f 199 171 180
f 263 254 318 319
f 199 180 189
f 82 73 298 299
f 199 189 198
f 10 1 290 291
f 199 198 208
f 181 172 309 310
f 199 208 217
f 209 200 312 313
f 199 217 226
f 127 118 303 304
f 199 226 235
f 28 19 292 293
f 199 235 244
f 254 245 317 318
f 199 244 253
f 281 272 320 321
f 199 253 262
f 1 281 321 290
f 199 262 271
f 73 64 297 298
f 199 271 280
f 172 163 308 309
f 199 280 289
f 200 190 311 312
f 118 109 302 303
f 19 10 291 292
f 289 288 8 9
f 245 236 316 317
f 287 286 6 7
f 285 284 4 5
f 283 282 2 3
f 272 263 319 320
f 64 55 296 297
f 199 289 9
f 163 154 307 308
f 288 287 7 8
f 190 181 310 311
f 286 285 5 6
f 284 283 3 4
f 282 281 1 2
f 296 295 363 370
f 307 306 440 447
f 318 317 517 524
f 297 296 370 377
f 308 307 447 454
f 319 318 524 531
f 298 297 377 384
f 309 308 454 461
f 299 298 384 391
f 291 290 328 335
f 310 309 461 468
f 300 299 391 398
f 311 310 468 475
f 301 300 398 405
f 312 311 475 482
f 302 301 405 412
f 313 312 482 489
f 290 321 546 328
f 303 302 412 419
f 292 291 335 342
f 314 313 489 496
f 304 303 419 426
f 293 292 342 349
f 315 314 496 503
f 320 319 531 539
f 305 304 426 433
f 294 293 349 356
f 316 315 503 510
f 321 320 539 546
f 306 305 433 440
f 295 294 356 363
f 317 316 510 517
f 328 327 334 335
f 326 325 332 333
f 324 323 330 331
f 327 326 333 334
f 325 324 331 332
f 323 322 329 330
f 334 333 340 341
f 332 331 338 339
f 330 329 336 337
f 335 334 341 342
f 333 332 339 340
f 331 330 337 338
f 341 340 347 348
f 339 338 345 346
f 337 336 343 344
f 342 341 348 349
f 340 339 346 347
f 338 337 344 345
f 348 347 354 355
f 346 345 352 353
f 344 343 350 351
f 349 348 355 356
f 347 346 353 354
f 345 344 351 352
f 355 354 361 362
f 353 352 359 360
f 351 350 357 358
f 356 355 362 363
f 354 353 360 361
f 352 351 358 359
f 362 361 368 369
f 360 359 366 367
f 358 357 364 365
f 363 362 369 370
f 361 360 367 368
f 359 358 365 366
f 369 368 375 376
f 367 366 373 374
f 365 364 371 372
f 370 369 376 377
f 368 367 374 375
f 366 365 372 373
f 376 375 382 383
f 374 373 380 381
f 372 371 378 379
f 377 376 383 384
f 375 374 381 382
f 373 372 379 380
f 383 382 389 390
f 381 380 387 388
f 379 378 385 386
f 384 383 390 391
f 382 381 388 389
f 380 379 386 387
f 390 389 396 397
f 388 387 394 395
f 386 385 392 393
f 391 390 397 398
f 389 388 395 396
f 387 386 393 394
f 397 396 403 404
f 395 394 401 402
f 393 392 399 400
f 398 397 404 405
f 396 395 402 403
f 394 393 400 401
f 404 403 410 411
f 402 401 408 409
f 400 399 406 407
f 405 404 411 412
f 403 402 409 410
f 401 400 407 408
f 411 410 417 418
f 409 408 415 416
f 407 406 413 414
f 412 411 418 419
f 410 409 416 417
f 408 407 414 415
f 418 417 424 425
f 416 415 422 423
f 414 413 420 421
f 419 418 425 426
f 417 416 423 424
f 415 414 421 422
f 425 424 431 432
f 423 422 429 430
f 421 420 427 428
f 426 425 432 433
f 424 423 430 431
f 422 421 428 429
f 432 431 438 439
f 430 429 436 437
f 428 427 434 435
f 433 432 439 440
f 431 430 437 438
f 429 428 435 436
f 439 438 445 446
f 437 436 443 444
f 435 434 441 442
f 440 439 446 447
f 438 437 444 445
f 436 435 442 443
f 446 445 452 453
f 444 443 450 451
f 442 441 448 449
f 447 446 453 454
f 445 444 451 452
f 443 442 449 450
f 453 452 459 460
f 451 450 457 458
f 449 448 455 456
f 454 453 460 461
f 452 451 458 459
f 450 449 456 457
f 460 459 466 467
f 458 457 464 465
f 456 455 462 463
f 461 460 467 468
f 459 458 465 466
f 457 456 463 464
f 467 466 473 474
f 465 464 471 472
f 463 462 469 470
f 468 467 474 475
f 466 465 472 473
f 464 463 470 471
f 474 473 480 481
f 472 471 478 479
f 470 469 476 477
f 475 474 481 482
f 473 472 479 480
f 471 470 477 478
f 481 480 487 488
f 479 478 485 486
f 477 476 483 484
f 482 481 488 489
f 480 479 486 487
f 478 477 484 485
f 488 487 494 495
f 486 485 492 493
f 484 483 490 491
f 489 488 495 496
f 487 486 493 494
f 485 484 491 492
f 495 494 501 502
f 493 492 499 500
f 491 490 497 498
f 496 495 502 503
f 494 493 500 501
f 492 491 498 499
f 502 501 508 509
f 500 499 506 507
f 498 497 504 505
f 503 502 509 510
f 501 500 507 508
f 499 498 505 506
f 509 508 515 516
f 507 506 513 514
f 505 504 511 512
f 510 509 516 517
f 508 507 514 515
f 506 505 512 513
f 516 515 522 523
f 514 513 520 521
f 512 511 518 519
f 517 516 523 524
f 515 514 521 522
f 513 512 519 520
f 523 522 529 530
f 521 520 527 528
f 519 518 525 526
f 524 523 530 531
f 522 521 528 529
f 520 519 526 527
f 530 529 537 538
f 528 527 535 536
f 526 525 533 534
f 531 530 538 539
f 529 528 536 537
f 527 526 534 535
f 538 537 544 545
f 536 535 542 543
f 534 533 540 541
f 539 538 545 546
f 537 536 543 544
f 535 534 541 542
f 322 532 329
f 329 532 336
f 336 532 343
f 343 532 350
f 350 532 357
f 357 532 364
f 364 532 371
f 371 532 378
f 378 532 385
f 385 532 392
f 392 532 399
f 399 532 406
f 406 532 413
f 413 532 420
f 420 532 427
f 427 532 434
f 434 532 441
f 441 532 448
f 448 532 455
f 455 532 462
f 462 532 469
f 469 532 476
f 476 532 483
f 483 532 490
f 490 532 497
f 497 532 504
f 504 532 511
f 511 532 518
f 518 532 525
f 525 532 533
f 533 532 540
f 545 544 326 327
f 543 542 324 325
f 541 540 322 323
f 546 545 327 328
f 544 543 325 326
f 542 541 323 324
f 540 532 322
o Cylinder.001
v -2.535229 -9.126710 -2.475799
v -2.535229 -8.287122 -2.961920
v -2.515826 -9.125491 -2.473696
v -2.515826 -8.285904 -2.959816
v -2.497168 -9.121884 -2.467466
v -2.497168 -8.282297 -2.953586
v -2.479973 -9.116027 -2.457350
v -2.479973 -8.276440 -2.943470
v -2.464901 -9.108145 -2.443735
v -2.464901 -8.268557 -2.929856
v -2.452532 -9.098539 -2.427146
v -2.452532 -8.258951 -2.913266
v -2.443341 -9.087581 -2.408220
v -2.443341 -8.247993 -2.894340
v -2.437681 -9.075690 -2.387683
v -2.437681 -8.236103 -2.873804
v -2.435770 -9.063325 -2.366326
v -2.435770 -8.223737 -2.852447
v -2.437681 -9.050959 -2.344969
v -2.437681 -8.211371 -2.831089
v -2.443341 -9.039068 -2.324433
v -2.443341 -8.199481 -2.810553
v -2.452532 -9.028111 -2.305506
v -2.452532 -8.188522 -2.791627
v -2.464901 -9.018505 -2.288917
v -2.464901 -8.178917 -2.775038
v -2.479973 -9.010622 -2.275303
v -2.479973 -8.171035 -2.761423
v -2.497168 -9.004765 -2.265187
v -2.497168 -8.165177 -2.751307
v -2.515826 -9.001158 -2.258957
v -2.515826 -8.161570 -2.745077
v -2.535229 -8.999940 -2.256853
v -2.535229 -8.160352 -2.742974
v -2.554633 -9.001158 -2.258957
v -2.554633 -8.161571 -2.745077
v -2.573291 -9.004765 -2.265187
v -2.573291 -8.165177 -2.751307
v -2.590486 -9.010622 -2.275303
v -2.590486 -8.171035 -2.761423
v -2.605558 -9.018505 -2.288917
v -2.605558 -8.178917 -2.775038
v -2.617927 -9.028111 -2.305506
v -2.617927 -8.188522 -2.791627
v -2.627118 -9.039068 -2.324433
v -2.627118 -8.199481 -2.810553
v -2.632778 -9.050960 -2.344969
v -2.632778 -8.211371 -2.831089
v -2.634689 -9.063325 -2.366326
v -2.634689 -8.223737 -2.852447
v -2.632778 -9.075690 -2.387683
v -2.632778 -8.236103 -2.873804
v -2.627118 -9.087582 -2.408220
v -2.627118 -8.247993 -2.894340
v -2.617927 -9.098539 -2.427146
v -2.617927 -8.258951 -2.913267
v -2.605558 -9.108145 -2.443735
v -2.605558 -8.268557 -2.929856
v -2.590486 -9.116027 -2.457350
v -2.590486 -8.276440 -2.943470
v -2.573291 -9.121884 -2.467466
v -2.573291 -8.282297 -2.953587
v -2.554633 -9.125492 -2.473696
v -2.554633 -8.285904 -2.959816
g Cylinder.001_Cylinder.001_Material.002
usemtl Material.002
s off
f 547 548 550 549
f 549 550 552 551
f 551 552 554 553
f 553 554 556 555
f 555 556 558 557
f 557 558 560 559
f 559 560 562 561
f 561 562 564 563
f 563 564 566 565
f 565 566 568 567
f 567 568 570 569
f 569 570 572 571
f 571 572 574 573
f 573 574 576 575
f 575 576 578 577
f 577 578 580 579
f 579 580 582 581
f 581 582 584 583
f 583 584 586 585
f 585 586 588 587
f 587 588 590 589
f 589 590 592 591
f 591 592 594 593
f 593 594 596 595
f 595 596 598 597
f 597 598 600 599
f 599 600 602 601
f 601 602 604 603
f 603 604 606 605
f 605 606 608 607
f 550 548 610 608 606 604 602 600 598 596 594 592 590 588 586 584 582 580 578 576 574 572 570 568 566 564 562 560 558 556 554 552
f 609 610 548 547
f 607 608 610 609
f 547 549 551 553 555 557 559 561 563 565 567 569 571 573 575 577 579 581 583 585 587 589 591 593 595 597 599 601 603 605 607 609
o Cylinder.000_Cylinder.003
v -2.501308 -8.828663 -5.057235
v -2.624748 -7.989075 -4.587049
v -2.519541 -8.827444 -5.064197
v -2.642981 -7.987856 -4.594010
v -2.536006 -8.823837 -5.074960
v -2.659446 -7.984250 -4.604774
v -2.550069 -8.817980 -5.089111
v -2.673509 -7.978392 -4.618925
v -2.561189 -8.810098 -5.106107
v -2.684629 -7.970510 -4.635920
v -2.568941 -8.800492 -5.125293
v -2.692380 -7.960905 -4.655106
v -2.573025 -8.789534 -5.145933
v -2.696464 -7.949946 -4.675746
v -2.573284 -8.777643 -5.167233
v -2.696724 -7.938056 -4.697047
v -2.569709 -8.765278 -5.188375
v -2.693149 -7.925690 -4.718189
v -2.562438 -8.752913 -5.208548
v -2.685878 -7.913324 -4.738361
v -2.551749 -8.741021 -5.226974
v -2.675189 -7.901433 -4.756787
v -2.538053 -8.730063 -5.242946
v -2.661493 -7.890475 -4.772759
v -2.521877 -8.720458 -5.255850
v -2.645317 -7.880870 -4.785664
v -2.503842 -8.712575 -5.265191
v -2.627282 -7.872987 -4.795004
v -2.484641 -8.706718 -5.270610
v -2.608081 -7.867130 -4.800423
v -2.465013 -8.703111 -5.271897
v -2.588453 -7.863523 -4.801711
v -2.445711 -8.701893 -5.269005
v -2.569151 -7.862305 -4.798818
v -2.427478 -8.703111 -5.262043
v -2.550918 -7.863523 -4.791856
v -2.411013 -8.706718 -5.251280
v -2.534453 -7.867130 -4.781093
v -2.396950 -8.712575 -5.237129
v -2.520390 -7.872987 -4.766942
v -2.385830 -8.720458 -5.220133
v -2.509269 -7.880870 -4.749947
v -2.378078 -8.730063 -5.200947
v -2.501518 -7.890475 -4.730760
v -2.373995 -8.741021 -5.180307
v -2.497434 -7.901433 -4.710120
v -2.373735 -8.752913 -5.159007
v -2.497175 -7.913324 -4.688820
v -2.377310 -8.765278 -5.137864
v -2.500750 -7.925690 -4.667677
v -2.384582 -8.777643 -5.117692
v -2.508021 -7.938056 -4.647506
v -2.395271 -8.789534 -5.099267
v -2.518710 -7.949946 -4.629080
v -2.408966 -8.800492 -5.083294
v -2.532406 -7.960905 -4.613108
v -2.425143 -8.810098 -5.070390
v -2.548582 -7.970510 -4.600203
v -2.443177 -8.817980 -5.061049
v -2.566617 -7.978392 -4.590862
v -2.462378 -8.823837 -5.055630
v -2.585818 -7.984250 -4.585443
v -2.482006 -8.827444 -5.054343
v -2.605446 -7.987856 -4.584156
g Cylinder.000_Cylinder.003_Material.003
usemtl Material.003
s off
f 611 612 614 613
f 613 614 616 615
f 615 616 618 617
f 617 618 620 619
f 619 620 622 621
f 621 622 624 623
f 623 624 626 625
f 625 626 628 627
f 627 628 630 629
f 629 630 632 631
f 631 632 634 633
f 633 634 636 635
f 635 636 638 637
f 637 638 640 639
f 639 640 642 641
f 641 642 644 643
f 643 644 646 645
f 645 646 648 647
f 647 648 650 649
f 649 650 652 651
f 651 652 654 653
f 653 654 656 655
f 655 656 658 657
f 657 658 660 659
f 659 660 662 661
f 661 662 664 663
f 663 664 666 665
f 665 666 668 667
f 667 668 670 669
f 669 670 672 671
f 614 612 674 672 670 668 666 664 662 660 658 656 654 652 650 648 646 644 642 640 638 636 634 632 630 628 626 624 622 620 618 616
f 673 674 612 611
f 671 672 674 673
f 611 613 615 617 619 621 623 625 627 629 631 633 635 637 639 641 643 645 647 649 651 653 655 657 659 661 663 665 667 669 671 673
